6 Manipulação | Introdução ao R
…
# Observar a estrutura
str(gapminder)

## Classes 'tbl_df', 'tbl' and 'data.frame':    1704 obs. of  6 variables:
##  $ country  : Factor w/ 142 levels "Afghanistan",..: 1 1 1 1 1 1 1 1 1 1 ...
##  $ continent: Factor w/ 5 levels "Africa","Americas",..: 3 3 3 3 3 3 3 3 3 3 ...
##  $ year     : int  1952 1957 1962 1967 1972 1977 1982 1987 1992 1997 ...
##  $ lifeExp  : num  28.8 30.3 32 34 36.1 ...
##  $ pop      : int  8425333 9240934 10267083 11537966 13079460 14880372 12881816 13867957 16317921 22227415 ...
##  $ gdpPercap: num  779 821 853 836 740 ...

# Ordene por país
arrange(gapminder, country)

## # A tibble: 1,704 x 6
##    country     continent  year lifeExp      pop gdpPercap
##    <fct>       <fct>     <int>   <dbl>    <int>     <dbl>
##  1 Afghanistan Asia       1952    28.8  8425333      779.
##  2 Afghanistan Asia       1957    30.3  9240934      821.
##  3 Afghanistan Asia       1962    32.0 10267083      853.
##  4 Afghanistan Asia       1967    34.0 11537966      836.
##  5 Afghanistan Asia       1972    36.1 13079460      740.
##  6 Afghanistan Asia       1977    38.4 14880372      786.
##  7 Afghanistan Asia       1982    39.9 12881816      978.
##  8 Afghanistan Asia       1987    40.8 13867957      852.
##  9 Afghanistan Asia       1992    41.7 16317921      649.
## 10 Afghanistan Asia       1997    41.8 22227415      635.
## # … with 1,694 more rows

# Ordene a por gdpPercap (de forma descendente) e país (ascendente) 
arrange(gapminder, -gdpPercap, country)

## # A tibble: 1,704 x 6
##    country   continent  year lifeExp     pop gdpPercap
##    <fct>     <fct>     <int>   <dbl>   <int>     <dbl>
##  1 Kuwait    Asia       1957    58.0  212846   113523.
##  2 Kuwait    Asia       1972    67.7  841934   109348.
##  3 Kuwait    Asia       1952    55.6  160000   108382.
##  4 Kuwait    Asia       1962    60.5  358266    95458.
##  5 Kuwait    Asia       1967    64.6  575003    80895.
##  6 Kuwait    Asia       1977    69.3 1140357    59265.
##  7 Norway    Europe     2007    80.2 4627926    49357.
##  8 Kuwait    Asia       2007    77.6 2505559    47307.
##  9 Singapore Asia       2007    80.0 4553009    47143.
## 10 Norway    Europe     2002    79.0 4535591    44684.
## # … with 1,694 more rows

6.5 Pipe (%>%)

Antes de falarmos das funções summarise e group_by vamos falar do pipe (%>%). Ela faz parte do pacote dplyr do tidyverse.

Ela é uma das ferramentas mais utilizadas em nosso código, e ela permite a execução de funções em sequência, etapa por etapa. O pipe deixa nosso código mais limpo e mais fácil de compreensão.

Vamos ver alguns usos:

library(dplyr)
gapminder %>%
  filter(year == 1952)

## # A tibble: 142 x 6
##    country     continent  year lifeExp      pop gdpPercap
##    <fct>       <fct>     <int>   <dbl>    <int>     <dbl>
##  1 Afghanistan Asia       1952    28.8  8425333      779.
##  2 Albania     Europe     1952    55.2  1282697     1601.
##  3 Algeria     Africa     1952    43.1  9279525     2449.
##  4 Angola      Africa     1952    30.0  4232095     3521.
##  5 Argentina   Americas   1952    62.5 17876956     5911.
##  6 Australia   Oceania    1952    69.1  8691212    10040.
##  7 Austria     Europe     1952    66.8  6927772     6137.
##  8 Bahrain     Asia       1952    50.9   120447     9867.
##  9 Bangladesh  Asia       1952    37.5 46886859      684.
## 10 Belgium     Europe     1952    68    8730405     8343.
## # … with 132 more rows

gapminder %>%
  filter(year == 1952) %>%
  select(country, pop)

## # A tibble: 142 x 2
##    country          pop
##    <fct>          <int>
##  1 Afghanistan  8425333
##  2 Albania      1282697
##  3 Algeria      9279525
##  4 Angola       4232095
##  5 Argentina   17876956
##  6 Australia    8691212
##  7 Austria      6927772
##  8 Bahrain       120447
##  9 Bangladesh  46886859
## 10 Belgium      8730405
## # … with 132 more rows

gapminder %>%
  mutate(pib = pop * gdpPercap) %>%
  arrange(-pib)

## # A tibble: 1,704 x 7
##    country       continent  year lifeExp        pop gdpPercap     pib
##    <fct>         <fct>     <int>   <dbl>      <int>     <dbl>   <dbl>
##  1 United States Americas   2007    78.2  301139947    42952. 1.29e13
##  2 United States Americas   2002    77.3  287675526    39097. 1.12e13
##  3 United States Americas   1997    76.8  272911760    35767. 9.76e12
##  4 United States Americas   1992    76.1  256894189    32004. 8.22e12
##  5 United States Americas   1987    75.0  242803533    29884. 7.26e12
##  6 China         Asia       2007    73.0 1318683096     4959. 6.54e12
##  7 United States Americas   1982    74.6  232187835    25010. 5.81e12
##  8 United States Americas   1977    73.4  220239000    24073. 5.30e12
##  9 United States Americas   1972    71.3  209896000    21806. 4.58e12
## 10 Japan         Asia       2007    82.6  127467972    31656. 4.04e12
## # … with 1,694 more rows

gapminder %>%
  filter(year == 2007) %>%
  mutate(pib = pop * gdpPercap) %>%
  arrange(-pib)

## # A tibble: 142 x 7
##    country        continent  year lifeExp        pop gdpPercap     pib
##    <fct>          <fct>     <int>   <dbl>      <int>     <dbl>   <dbl>
##  1 United States  Americas   2007    78.2  301139947    42952. 1.29e13
##  2 China          Asia       2007    73.0 1318683096     4959. 6.54e12
##  3 Japan          Asia       2007    82.6  127467972    31656. 4.04e12
##  4 India          Asia       2007    64.7 1110396331     2452. 2.72e12
##  5 Germany        Europe     2007    79.4   82400996    32170. 2.65e12
##  6 United Kingdom Europe     2007    79.4   60776238    33203. 2.02e12
##  7 France         Europe     2007    80.7   61083916    30470. 1.86e12
##  8 Brazil         Americas   2007    72.4  190010647     9066. 1.72e12
##  9 Italy          Europe     2007    80.5   58147733    28570. 1.66e12
## 10 Mexico         Americas   2007    76.2  108700891    11978. 1.30e12
## # … with 132 more rows
…
gapminder %>%
  group_by(year, continent) %>%
  summarise(mean_gdpPercap = mean(gdpPercap),
            mean_life_exp = mean(lifeExp)) %>%
  arrange(-year, -mean_life_exp)

## # A tibble: 60 x 4
## # Groups:   year [12]
##     year continent mean_gdpPercap mean_life_exp
##    <int> <fct>              <dbl>         <dbl>
##  1  2007 Oceania           29810.          80.7
##  2  2007 Europe            25054.          77.6
##  3  2007 Americas          11003.          73.6
##  4  2007 Asia              12473.          70.7
##  5  2007 Africa             3089.          54.8
##  6  2002 Oceania           26939.          79.7
##  7  2002 Europe            21712.          76.7
##  8  2002 Americas           9288.          72.4
##  9  2002 Asia              10174.          69.2
## 10  2002 Africa             2599.          53.3
## # … with 50 more rows
